{
  "extensionName": {
    "message": "Allow HTML Temp"
  },
  "extensionDescription": {
    "message": "選択したメッセージを一時的に HTML 形式で表示します。"
  },

  "button_label": {
    "message": "HTML 表示"
  },
  "button_tooltip": {
    "message": "選択したメッセージを一時的に HTML 形式で表示します"
  },
  "button_label_html": {
    "message": "HTML 表示"
  },
  "button_label_sanitized": {
    "message": "シンプル HTML 表示"
  },
  "button_label_plaintext": {
    "message": "プレーンテキスト表示"
  },

  "optionPageTitle_label": {
    "message": "Allow HTML Temp - 設定"
  },
  "optionGeneralDescription_label": {
    "message": "悪意のあるコード (例: 'Locky' や 'Tesla') の実行を防ぐにはメール内の HTML、JavaScript、インラインの添付ファイルのサポートを無効にすることを推奨します。なお、JavaScript は Thunderbird によって既定で制限されます。"
  },

  "optionHTML_label": {
    "message": "メール内の HTML"
  },
  "optionHTMLDescription_label": {
    "message": "既定には制限つきの選択肢(シンプル HTML またはプレーンテキスト)を推奨します。"
  },
  "optionHTMLDescriptionWarning_label": {
    "message": "この項目は Thunderbird 本体のメニュー '表示' → 'メッセージの表示形式' の設定と共通です。ここで選択した設定は本アドオンを削除してもそのまま残りますが、Thunderbird 本体からも変更できます。",
    "description": "Please, use the original terms, which are used in Thunderbird menus and options dialog in your language"
  },
  "optionAppHTML_label": {
    "message": "既定:"
  },
  "optionButtonHTML_label": {
    "message": "'HTML 表示' クリック:"
  },
  "optionNotRecommended_label": {
    "message": "(非推奨)"
  },
  "optionOriginalHTML_label": {
    "message": "オリジナル HTML"
  },
  "optionSanitizedHTML_label": {
    "message": "シンプル HTML"
  },
  "optionPlaintext_label": {
    "message": "プレーンテキスト"
  },
  "optionAllBodyParts_label": {
    "message": "すべての MIME ボディパーツ"
  },

  "optionAdditionalOptions_label": {
    "message": "詳細オプション"
  },
  "optionAllwaysVersusClickDescription_label": {
    "message": "オリジナルの HTML の場合、いくつかのコンテンツオプションを設定することができます。以下のオプションに基づいてリモートコンテンツを許可し、JavaScript を有効にし、インライン添付ファイルの表示を有効にします。"
  },
  "optionRemoteContent_label": {
    "message": "リモートコンテンツ (画像、スタイルシート、...)"
  },
  "optionAllwaysRemoteContent_label": {
    "message": "リモートコンテンツを常に許可する(非推奨)"
  },
  "optionAllwaysRemoteContentWarning_label": {
    "message": "この項目は Thunderbird 本体の設定 'プライバシーとセキュリティ' → 'メッセージ内のリモートコンテンツを許可する' と共通です。ここで選択した設定は本アドオンを削除してもそのまま残りますが、Thunderbird 本体からも変更できます。",
    "description": "Please, use the original terms, which are used in Thunderbird menus and options dialog in your language"
  },
  "optionTempRemoteContent_label": {
    "message": "'HTML 表示' をクリックして選択したメッセージのリモートコンテンツを一時的に許可する"
  },
  "optionAttachments_label": {
    "message": "添付ファイル"
  },
  "optionAttachmentsAllwaysInline_label": {
      "message": "添付ファイルを常にインラインで表示する(非推奨)"
  },
  "optionAttachmentsTempInlineWarning_label": {
    "message": "この項目は Thunderbird 本体のメニュー '表示' → '添付をメッセージ本文に表示' の設定と共通です。ここで選択した設定は本アドオンを削除してもそのまま残りますが、Thunderbird 本体からも変更できます。",
    "description": "Please, use the original terms, which are used in Thunderbird menus and options dialog in your language"
  },
  "optionAttachmentsTempInline_label": {
      "message": "'HTML 表示' をクリックして添付ファイルを一時的にインラインで表示する"
  },

  "optionCommandKeyHeader_label": {
    "message": "ショートカット"
  },
  "optionCommandKeyDescription_label": {
    "message": "以下のボタンの機能はショートカットで起動できます。ショートカットは必要に応じて変更できます。キーは 2 つまたは 3 つのキー名を '+' で区切った文字列で表されます。例: 'Ctrl+Alt+F5' (3 キー - 既定値)、'Ctrl+F5' (2 キー)",
    "description": "Do not translate the Keys in the line above. The modifier keys like Ctrl and Alt must remain as given, because of the technical character of the text."
  },
  "optionCommandKeyRulesText_label": {
    "message": "変更する場合、MDN に記載された規則も参照してください。"
  },
  "optionCommandKey_label": {
    "message": "'HTML 表示' のショートカット:"
  },
  "optionCommandKeyWarning_label": {
    "message": "指定されたキーは規則に従っていません。既定値 'Ctrl+Alt+F5' が使用されます。",
    "description": "Do not translate the Keys in the line above. The modifier keys like Ctrl and Alt must remain as given, because of the technical character of the text."
  },

  "optionDebugHeader_label": {
    "message": "デバッグモード"
  },
  "optionDebugDescription_label": {
    "message": "デバッグ情報がエラーコンソールに出力されます。"
  },
  "optionDebug_label": {
    "message": "デバッグモードを有効にする"
  },

  "optionResetAllOptionsHeader_label": {
    "message": "全設定のリセット"
  },
  "optionResetAllOptionsDescription_label": {
    "message": "クリックするとすべての設定を既定値にリセットします。"
  },
  "optionResetAllOptionsDescription2_label": {
    "message": "クリックするとすべての設定を Thunderbird 既定値または推奨値にリセットします。"
  },
  "optionButtonResetToDefault_label": {
    "message": "Thunderbird 既定値"
  },
  "optionButtonResetToRecommended_label": {
    "message": "推奨設定"
  },
  "optionButtonReset_label": {
    "message": "リセット"
  },

  "uninstallResetDialog_label": {
    "message": "Allow HTML Temp を無効化または削除しようとしています。\n\n Thunderbird 本体の設定 'メッセージの表示形式'、'メッセージ内のリモートコンテンツを許可する'、'添付をメッセージ本文に表示' の値をリセットしますか? 現在の設定値を保持しますか?",
    "description": "Please, use the original terms, which are used in Thunderbird menus and options dialog in your language"
  },
  "uninstallResetToDefault_label": {
    "message": "リセット"
  },
  "uninstallResetNotToDefault_label": {
    "message": "設定値を保持"
  }

}